<?xml version="1.0" encoding="UTF-8" standalone="no"?>
<svg width="50px" height="43px" viewBox="0 0 50 43" version="1.1" xmlns="http://www.w3.org/2000/svg" xmlns:xlink="http://www.w3.org/1999/xlink">
    <!-- Generator: Sketch 39.1 (31720) - http://www.bohemiancoding.com/sketch -->
    <title>logo-small</title>
    <desc>Created with Sketch.</desc>
    <defs>
        <polygon id="path-1" points="0 0.178593333 0 29.813579 30.0994319 29.813579 30.0994319 0.178593333 2.77504127e-21 0.178593333"></polygon>
        <polygon id="path-3" points="14.4618419 0.180804762 0.07568 0.180804762 0.07568 21.9215229 14.4618419 21.9215229 14.4618419 0.180804762"></polygon>
        <polygon id="path-5" points="0.203574286 6.34761905 4.41335094 6.34761905 4.41335094 0.169624762 0.203574286 0.169624762"></polygon>
    </defs>
    <g id="Symbols" stroke="none" stroke-width="1" fill="none" fill-rule="evenodd">
        <g id="mobile-nav-320" transform="translate(-138.000000, 0.000000)">
            <g id="logo-small" transform="translate(138.000000, 0.000000)">
                <g id="Group-3" transform="translate(0.000000, 0.228719)">
                    <mask id="mask-2" fill="white">
                        <use xlink:href="#path-1"></use>
                    </mask>
                    <g id="Clip-2"></g>
                    <path d="M28.715011,0.720393333 L28.5718824,0.524640952 C28.5681967,0.524640952 28.5638967,0.520955238 28.560211,0.516655238 C28.3644586,0.309026667 28.0962205,0.178593333 27.7907157,0.178593333 C27.4364776,0.178593333 27.1229871,0.357964762 26.919249,0.630707619 L15.9128871,11.9134981 C15.9128871,11.9134981 15.5340776,12.3574219 15.0500205,12.422741 C14.565349,12.3574219 14.1865395,11.9134981 14.1865395,11.9134981 L3.18017762,0.630707619 C2.97643952,0.357964762 2.66294905,0.178593333 2.30932524,0.178593333 C2.00402524,0.178593333 1.7349681,0.309026667 1.53942048,0.516655238 C1.53553,0.520955238 1.53123,0.524640952 1.52754429,0.524640952 L1.38441571,0.720393333 C1.2791681,0.89526 1.21773952,1.10718857 1.21773952,1.3311981 L0.000634761905,29.1130886 C-0.0157461905,29.4918981 0.277063333,29.813579 0.63580619,29.813579 L6.38060619,29.813579 C6.72685857,29.813579 7.0120919,29.5199505 7.01577762,29.1575219 L7.47608238,16.5642552 C7.49246333,15.941779 8.15200143,15.6727219 8.61230619,16.1655838 L13.7751729,21.3530219 C14.1339157,21.6947695 14.5200967,21.9757029 15.0293395,21.9757029 L15.0500205,21.9757029 L15.0700871,21.9757029 C15.57933,21.9757029 15.9661252,21.6947695 16.324049,21.3530219 L21.4871205,16.1655838 C21.9474252,15.6727219 22.6069633,15.941779 22.6233443,16.5642552 L23.083649,29.1575219 C23.0873348,29.5199505 23.3727729,29.813579 23.7188205,29.813579 L29.4642348,29.813579 C29.8223633,29.813579 30.1149681,29.4918981 30.0987919,29.1130886 L28.8816871,1.3311981 C28.8816871,1.10718857 28.8202586,0.89526 28.715011,0.720393333" id="Fill-1" fill="#8D8E8F" mask="url(#mask-2)"></path>
                </g>
                <g id="Group-6" transform="translate(33.376190, 0.023957)">
                    <mask id="mask-4" fill="white">
                        <use xlink:href="#path-3"></use>
                    </mask>
                    <g id="Clip-5"></g>
                    <path d="M6.28672286,5.40010381 L13.383361,5.40010381 C13.9851562,5.36979905 14.4618419,4.87243238 14.4618419,4.26388 L14.4618419,1.31694667 C14.4618419,0.689965714 13.9534181,0.180722857 13.3256181,0.180722857 L1.20903714,0.180722857 C0.582670476,0.180722857 0.07568,0.687713333 0.07568,1.31408 L0.07568,20.785299 C0.07568,21.4137133 0.584922857,21.9215229 1.21190381,21.9215229 L13.3256181,21.9215229 C13.9534181,21.9215229 14.4618419,21.4137133 14.4618419,20.785299 L14.4618419,18.0889943 C14.4618419,17.464061 13.9548514,16.9546133 13.3301229,16.9546133 L6.28672286,16.9550229 C5.98510857,16.9550229 5.74123714,16.7111514 5.74123714,16.4109705 L5.74123714,14.0087038 C5.74123714,13.7085229 5.98510857,13.4632181 6.28672286,13.4632181 L11.957399,13.4632181 C12.3421467,13.4386467 12.6451943,13.1171705 12.6451943,12.7273038 L12.6451943,9.43063714 C12.6451943,9.03258 12.3280181,8.70393714 11.9322133,8.69206095 L6.28672286,8.69226571 C5.98510857,8.69226571 5.74123714,8.44859905 5.74123714,8.1484181 L5.74123714,5.94558952 C5.74123714,5.64540857 5.98510857,5.40010381 6.28672286,5.40010381" id="Fill-4" fill="#8D8E8F" mask="url(#mask-4)"></path>
                </g>
                <path d="M47.8380119,24.7343986 C47.8380119,24.4942129 47.5630167,24.3490367 47.3711548,24.4942129 C46.8959024,24.8537748 46.2459881,25.0745081 45.5315738,25.0745081 L36.83165,25.0745081 C34.96545,25.0745081 33.45185,26.587289 33.45185,28.4543081 L33.45185,30.3821414 C33.45185,30.6223271 33.7276643,30.7666843 33.9189119,30.6223271 C34.3939595,30.2627652 35.0438738,30.0418271 35.7584929,30.0418271 L35.7584929,30.0412129 L44.4582119,30.0412129 C46.3246167,30.0412129 47.8380119,28.5284319 47.8380119,26.6614129 L47.8380119,24.7343986 Z" id="Fill-7" fill="#746CAF"></path>
                <path d="M49.7091876,39.22546 C49.7370352,39.22546 49.7532114,39.2453219 49.7532114,39.2733743 L49.7532114,40.372741 C49.7532114,40.4007933 49.7370352,40.4245457 49.7052971,40.4245457 L49.5898114,40.4245457 C49.561759,40.4245457 49.5418971,40.4007933 49.5418971,40.372741 L49.5418971,39.6955933 L49.1434305,40.3807267 C49.1315543,40.4007933 49.1153781,40.4163552 49.0916257,40.4163552 L49.08364,40.4163552 C49.0598876,40.4163552 49.0439162,40.404479 49.03204,40.3807267 L48.6495448,39.6955933 L48.6495448,40.372741 C48.6495448,40.4007933 48.6296829,40.4245457 48.5979448,40.4245457 L48.4861448,40.4245457 C48.4542019,40.4245457 48.43434,40.4007933 48.43434,40.372741 L48.43434,39.2733743 C48.43434,39.2453219 48.4542019,39.22546 48.4822543,39.22546 L48.605521,39.22546 C48.6333686,39.22546 48.6495448,39.2334457 48.6575305,39.2533076 L49.08794,40.03816 L49.5220352,39.2533076 C49.530021,39.2334457 49.5498829,39.22546 49.5736352,39.22546 L49.7091876,39.22546 Z M48.2310114,39.22546 C48.2633638,39.22546 48.2832257,39.2453219 48.2832257,39.2733743 L48.2832257,39.38886 C48.2832257,39.4205981 48.2590638,39.4406648 48.2310114,39.4406648 L47.9404543,39.4406648 L47.9404543,40.372741 C47.9404543,40.4007933 47.9205924,40.4245457 47.8927448,40.4245457 L47.7770543,40.4245457 C47.7453162,40.4245457 47.7254543,40.4007933 47.7254543,40.372741 L47.7254543,39.4406648 L47.4344876,39.4406648 C47.4064352,39.4406648 47.3865733,39.4205981 47.3865733,39.38886 L47.3865733,39.2733743 C47.3865733,39.2453219 47.4064352,39.22546 47.4344876,39.22546 L48.2310114,39.22546 Z" id="Fill-9" fill="#746CAF"></path>
                <path d="M12.4492986,38.0834005 C12.1202462,38.0051814 11.9640129,37.9589052 11.9640129,37.8256052 C11.9640129,37.7080719 12.057589,37.6376338 12.2457652,37.6454148 C12.5197367,37.6607719 12.9192271,37.8720862 12.9505557,37.8876481 C13.0209938,37.9193862 13.0996224,37.9193862 13.1542938,37.8333862 L13.5849081,37.2141862 C13.6397843,37.1359671 13.6008795,37.0501719 13.4989081,36.995091 C13.1227605,36.7759957 12.7937081,36.63471 12.2302033,36.6422862 C11.27417,36.6584624 10.8044462,37.1986243 10.8122271,37.770729 C10.8202129,38.3033148 11.2194986,38.8041624 11.9089319,38.9767767 C12.4103938,39.1098719 12.5119557,39.1649529 12.5119557,39.2898576 C12.5119557,39.4153767 12.4181748,39.4780338 12.2302033,39.4702529 C11.939851,39.4542814 11.4150462,39.18031 11.360989,39.1489814 C11.2588129,39.102091 11.1961557,39.1176529 11.1257176,39.2272005 L10.7340081,39.8148671 C10.703089,39.8697433 10.7262271,39.9633195 10.7811033,40.0028386 C10.9770605,40.1592767 11.5876605,40.4805481 12.2144367,40.4727671 C13.1542938,40.4649862 13.7571129,39.9401814 13.7571129,39.3134052 C13.7571129,38.6323671 13.1542938,38.2560148 12.4492986,38.0834005" id="Fill-11" fill="#746CAF"></path>
                <path d="M15.8410567,38.0837076 C15.5120043,38.0054886 15.355771,37.9588029 15.355771,37.8257076 C15.355771,37.7079695 15.4493471,37.6375314 15.6375233,37.6453124 C15.9114948,37.6608743 16.3109852,37.8723933 16.3427233,37.8879552 C16.4131614,37.9192838 16.4913805,37.9192838 16.5462567,37.8334886 L16.9766662,37.2144933 C17.0315424,37.1362743 16.9926376,37.0500695 16.8906662,36.9953981 C16.5145186,36.7760981 16.1854662,36.6346076 15.6219614,36.6423886 C14.6663376,36.6587695 14.196409,37.1989314 14.20419,37.7708314 C14.211971,38.3034171 14.6112567,38.80406 15.30069,38.9766743 C15.8017424,39.1099743 15.9037138,39.1648505 15.9037138,39.2901648 C15.9037138,39.4156838 15.8101376,39.478341 15.6219614,39.4703552 C15.3320186,39.4543838 14.8072138,39.1804124 14.7521329,39.1494933 C14.6507757,39.1021933 14.5881186,39.1175505 14.5176805,39.2275076 L14.125971,39.8151743 C14.0942329,39.8698457 14.11819,39.9636267 14.1728614,40.002941 C14.3688186,40.1595838 14.9794186,40.4808552 15.60599,40.4728695 C16.5462567,40.4650886 17.1492805,39.9402838 17.1492805,39.3135076 C17.1492805,38.6322648 16.5462567,38.2561171 15.8410567,38.0837076" id="Fill-13" fill="#746CAF"></path>
                <path d="M5.74764619,34.2958376 C5.67434143,34.2958376 5.61967,34.333309 5.56725095,34.389209 L3.29132238,36.7226757 C3.29132238,36.7226757 3.24054143,36.7818519 3.16867,36.8121567 C3.13283667,36.8271043 3.0929081,36.8271043 3.05687,36.8121567 C2.98499857,36.7818519 2.93442238,36.7226757 2.93442238,36.7226757 L0.65849381,34.389209 C0.606074762,34.333309 0.551403333,34.2958376 0.478098571,34.2958376 C0.287260476,34.2958376 0.252450952,34.4876995 0.252450952,34.5339757 L0.000798571429,40.2795948 C-0.00268238095,40.3578138 0.0579271429,40.4245662 0.13184619,40.4245662 L1.32007952,40.4245662 C1.39174619,40.4245662 1.45071762,40.3637519 1.45153667,40.288809 L1.54654619,37.6428757 C1.55002714,37.5140805 1.68168905,37.4618662 1.78161286,37.5603567 L2.84924143,38.633309 C2.92357,38.7039519 3.00342714,38.7621043 3.10867476,38.7621043 L3.11256524,38.7621043 L3.11297476,38.7621043 L3.11686524,38.7621043 C3.22231762,38.7621043 3.30217476,38.7039519 3.37629857,38.633309 L4.44392714,37.5603567 C4.54405571,37.4618662 4.67571762,37.5140805 4.67919857,37.6428757 L4.7742081,40.288809 C4.77502714,40.3637519 4.83399857,40.4245662 4.90546048,40.4245662 L6.09389857,40.4245662 C6.16761286,40.4245662 6.22842714,40.3578138 6.22494619,40.2795948 L5.97329381,34.5339757 C5.97329381,34.4876995 5.93827952,34.2958376 5.74764619,34.2958376" id="Fill-15" fill="#746CAF"></path>
                <path d="M27.0137262,38.1554562 C27.0442357,37.899299 27.3024405,37.6691467 27.663231,37.6607514 C28.1462643,37.635361 28.3766214,37.9298086 28.2769024,38.1554562 C27.9331071,38.1886276 27.3739024,38.1886276 27.0137262,38.1554562 M28.8649786,38.9534133 C29.2325262,38.9063181 29.4448643,38.6786229 29.4524405,38.3264324 C29.4680024,37.4883419 28.8176786,36.6500467 27.6429595,36.6500467 C26.562431,36.6500467 25.771231,37.5354371 25.7790119,38.5617038 C25.7867929,39.6733562 26.632869,40.4649657 27.7211786,40.4727467 C28.4106119,40.4805276 28.9507738,40.2530371 29.2798262,39.8150514 C29.3349071,39.7366276 29.3029643,39.6733562 29.2566881,39.6035324 L29.0447595,39.2738657 C28.9980738,39.2034276 28.9116643,39.2112086 28.8101024,39.2507276 C28.5668452,39.3529038 28.149131,39.4683895 27.7265024,39.4210895 C27.3661214,39.3823895 27.0579548,39.2394657 26.9926357,38.9611943 C27.4703452,39.0162752 28.2146548,39.0238514 28.8649786,38.9534133" id="Fill-17" fill="#746CAF"></path>
                <g id="Group-21" transform="translate(21.295238, 36.471576)">
                    <mask id="mask-6" fill="white">
                        <use xlink:href="#path-5"></use>
                    </mask>
                    <g id="Clip-20"></g>
                    <path d="M2.30668381,5.38552476 C1.92746476,5.38552476 1.57363619,5.34334381 1.5429219,5.00999143 C1.51957905,4.7505581 1.64898857,4.53576286 2.00998381,4.53576286 C2.2008219,4.53576286 2.61485048,4.58879619 2.87121238,4.68564857 C3.04096,4.74953429 3.07044571,4.89082 3.07515524,4.9569581 C3.09686,5.2675819 2.78214095,5.38552476 2.30668381,5.38552476 M2.28006476,1.34188667 C2.57963143,1.34188667 2.81019333,1.5599581 2.81019333,1.81939143 C2.81019333,2.08578667 2.57963143,2.29689619 2.28006476,2.29689619 C1.98868857,2.29689619 1.74297429,2.08578667 1.74297429,1.81939143 C1.74297429,1.5599581 1.98868857,1.34188667 2.28006476,1.34188667 M3.78629333,3.96017714 C3.20722667,3.68374857 2.30504571,3.67801524 1.71758381,3.60327714 C1.38034095,3.54962952 1.18766,3.45257238 1.2322981,3.31374381 C1.26260286,3.22037238 1.35761238,3.14645333 1.61561238,3.20931524 C1.80378857,3.25620571 2.01571714,3.30330095 2.26552667,3.3110819 C3.24490286,3.35019143 3.99699333,2.92653905 4.01276,1.90866762 C4.02054095,1.60316286 3.9423219,1.34475333 3.84014571,1.15657714 C3.9423219,1.1256581 4.13008857,1.09453429 4.13786952,1.00034381 L4.18516952,0.40489619 C4.19274571,0.311115238 4.11473143,0.248458095 4.02811714,0.248458095 C3.38577905,0.279581905 3.18204095,0.248458095 2.82227429,0.216924762 C2.4932219,0.186005714 2.38326476,0.169624762 2.22703143,0.169624762 C1.24007905,0.169624762 0.480002857,0.95304381 0.495564762,1.8695581 C0.506417143,2.24550095 0.667564762,2.55673905 0.843250476,2.75064857 C0.540612381,2.75064857 0.203574286,2.95868667 0.203574286,3.35264857 C0.203574286,3.89874857 0.64586,4.15633905 1.10370762,4.24459143 C0.809874286,4.31523429 0.401988571,4.46819143 0.346907619,4.94569619 C0.245345714,5.84685333 1.08302667,6.34770095 2.17195048,6.34770095 C3.3779981,6.34770095 4.45258857,5.90029619 4.41225048,4.93812 C4.39525524,4.53310095 4.2175219,4.1667819 3.78629333,3.96017714" id="Fill-19" fill="#746CAF" mask="url(#mask-6)"></path>
                </g>
                <path d="M8.16068333,39.5481648 C7.9071881,39.5088505 7.87852143,39.2406124 8.04171667,39.1208267 C8.22825476,38.98466 8.59395952,38.9062362 8.98669286,38.8882171 L9.00594048,39.2741933 C8.81592143,39.4402552 8.46946429,39.60386 8.16068333,39.5481648 M10.1945833,37.9809171 C10.2336929,37.12706 9.54466905,36.6647076 8.64371667,36.6487362 C8.06424048,36.633379 7.49234048,36.7904314 7.10861667,36.9861838 C7.03838333,37.024679 7.00664524,37.1031029 7.03060238,37.1899219 L7.22635476,37.8474124 C7.24990238,37.9334124 7.34327381,37.9651505 7.44524524,37.926041 C7.90759762,37.7300838 8.34353571,37.6983457 8.6295881,37.7399124 C8.88226429,37.7769743 8.95802619,37.9192838 8.95966429,38.0241219 C7.28286905,38.2921552 6.58401667,38.7401743 6.81089286,39.703579 C6.9912881,40.4636552 7.87626905,40.5181219 8.36196429,40.4794219 C8.76145476,40.447479 8.94942619,40.2988219 9.12122143,40.1814933 C9.16094524,40.3066029 9.26291667,40.424341 9.40379286,40.424341 L10.132131,40.424341 C10.2336929,40.424341 10.2807881,40.33056 10.265431,40.2285886 C10.16305,39.4296076 10.155269,38.7798981 10.1945833,37.9809171" id="Fill-22" fill="#746CAF"></path>
                <path d="M18.902759,39.5481648 C18.6492638,39.5088505 18.6205971,39.2406124 18.7837924,39.1208267 C18.9703305,38.98466 19.3360352,38.9062362 19.7287686,38.8882171 L19.7480162,39.2741933 C19.5579971,39.4402552 19.21154,39.60386 18.902759,39.5481648 M20.936659,37.9809171 C20.9757686,37.12706 20.2867448,36.6647076 19.3857924,36.6487362 C18.8063162,36.633379 18.2344162,36.7904314 17.8506924,36.9861838 C17.780459,37.024679 17.748721,37.1031029 17.7726781,37.1899219 L17.9684305,37.8474124 C17.9919781,37.9334124 18.0853495,37.9651505 18.187321,37.926041 C18.6496733,37.7300838 19.0856114,37.6983457 19.3716638,37.7399124 C19.62434,37.7769743 19.7001019,37.9192838 19.70174,38.0241219 C18.0249448,38.2921552 17.3260924,38.7401743 17.5529686,39.703579 C17.7333638,40.4636552 18.6183448,40.5181219 19.10404,40.4794219 C19.5035305,40.447479 19.6915019,40.2988219 19.8632971,40.1814933 C19.903021,40.3066029 20.0049924,40.424341 20.1458686,40.424341 L20.8742067,40.424341 C20.9757686,40.424341 21.0228638,40.33056 21.0075067,40.2285886 C20.9051257,39.4296076 20.8973448,38.7798981 20.936659,37.9809171" id="Fill-24" fill="#746CAF"></path>
                <path d="M40.2608795,39.7366276 L40.2608795,38.17798 C40.2453176,37.2381229 39.4852414,36.6269086 38.6240129,36.6422657 C38.2269795,36.6502514 37.9431795,36.7935848 37.6661367,36.9840133 C37.6436129,36.9993705 37.6131033,36.994661 37.5965176,36.9729562 C37.550651,36.9121419 37.5142033,36.8386324 37.4847176,36.7663514 C37.46547,36.7198705 37.4200129,36.6895657 37.3694367,36.6895657 L36.5860176,36.6895657 C36.5034986,36.6895657 36.4367462,36.7563181 36.4367462,36.8388371 L36.4367462,40.2536514 C36.4367462,40.3474324 36.4994033,40.4244229 36.5935938,40.4244229 L37.5885319,40.4244229 C37.6745319,40.4244229 37.74497,40.3474324 37.74497,40.2614324 L37.74497,38.2164752 C38.053751,37.7305752 38.9606414,37.781561 38.9606414,38.59078 L38.9606414,40.01838 C38.9606414,40.2536514 39.1015176,40.4244229 39.3601319,40.4244229 L40.2293462,40.4244229 C40.3075652,40.4244229 40.3466748,40.3318705 40.3235367,40.2296943 C40.2917986,40.0888181 40.2686605,39.9557229 40.2608795,39.7366276" id="Fill-26" fill="#746CAF"></path>
                <path d="M47.6926719,36.6895043 L46.6119386,36.6895043 C46.5179529,36.6895043 46.4630767,36.7286138 46.4239671,36.8070376 L45.695629,38.4203567 L44.9124148,36.8070376 C44.8733052,36.7286138 44.818429,36.6895043 44.7322243,36.6895043 L42.8660243,36.6895043 C42.7798195,36.6895043 42.748491,36.7521614 42.7093814,36.8461471 L42.1767957,38.0913043 C42.1612338,38.107071 42.1612338,38.107071 42.1534529,38.0913043 L41.6130862,36.8461471 C41.5737719,36.7521614 41.5424433,36.6895043 41.4562386,36.6895043 L40.3599433,36.6895043 C40.2581767,36.6895043 40.2033005,36.7521614 40.250191,36.8461471 L41.9574957,40.3078519 C41.9888243,40.386071 42.0437005,40.4487281 42.1219195,40.4487281 L42.2081243,40.4487281 C42.2787671,40.4487281 42.3492052,40.37829 42.3805338,40.3078519 L43.8050624,37.406171 L45.037729,39.7439376 L43.4227719,42.550609 C43.3308338,42.7033614 43.2665386,42.8122948 43.4575814,42.8122948 L44.5049386,42.8122948 C44.6753005,42.8122948 44.6982338,42.7330519 44.7426671,42.653809 L47.8179862,36.8774757 C47.8726576,36.7679281 47.8102052,36.6895043 47.6926719,36.6895043" id="Fill-28" fill="#746CAF"></path>
                <path d="M35.6982724,34.4407271 L32.3029105,34.4407271 C32.10122,34.4407271 31.9376152,34.6043319 31.9376152,34.8062271 L31.9376152,40.0665605 C31.9376152,40.26907 32.1018343,40.4244843 32.304139,40.4244843 L35.6982724,40.4244843 C35.8110962,40.4244843 35.9026248,40.3481081 35.9026248,40.2352843 L35.9026248,39.2997271 C35.9026248,39.1869033 35.8110962,39.0892319 35.6982724,39.0892319 L33.5585105,39.0892319 C33.4749676,39.0892319 33.4073962,39.0214557 33.4073962,38.9381176 L33.4073962,38.3058129 C33.4073962,38.192989 33.4989248,38.1014605 33.6117486,38.1014605 L35.0313629,38.1014605 C35.1441867,38.1014605 35.2357152,38.0099319 35.2357152,37.8969033 L35.2357152,36.961551 C35.2357152,36.8485224 35.1441867,36.7569938 35.0313629,36.7569938 L33.6117486,36.7569938 C33.4989248,36.7569938 33.4073962,36.6654652 33.4073962,36.5526414 L33.4073962,35.938151 C33.4073962,35.8548129 33.4749676,35.7870367 33.5585105,35.7870367 L35.6982724,35.7870367 C35.8110962,35.7870367 35.9026248,35.6934605 35.9026248,35.5806367 L35.9026248,34.6450795 C35.9026248,34.5322557 35.8110962,34.4407271 35.6982724,34.4407271" id="Fill-30" fill="#746CAF"></path>
            </g>
        </g>
    </g>
</svg>